%YAML 1.1
%TAG !u! tag:unity3d.com,2011:
--- !u!1001 &8048004703626314034
PrefabInstance:
  m_ObjectHideFlags: 0
  serializedVersion: 2
  m_Modification:
    m_TransformParent: {fileID: 0}
    m_Modifications:
    - target: {fileID: 8049396821094342068, guid: 88c75293ab7e78a4ca86de035cb23cbb,
        type: 3}
      propertyPath: m_Name
      value: PressurisedSteam
      objectReference: {fileID: 0}
    - target: {fileID: 8052367427413783662, guid: 88c75293ab7e78a4ca86de035cb23cbb,
        type: 3}
      propertyPath: m_RootOrder
      value: 0
      objectReference: {fileID: 0}
    - target: {fileID: 8052367427413783662, guid: 88c75293ab7e78a4ca86de035cb23cbb,
        type: 3}
      propertyPath: m_LocalPosition.x
      value: 8.25
      objectReference: {fileID: 0}
    - target: {fileID: 8052367427413783662, guid: 88c75293ab7e78a4ca86de035cb23cbb,
        type: 3}
      propertyPath: m_LocalPosition.y
      value: 2.5
      objectReference: {fileID: 0}
    - target: {fileID: 8052367427413783662, guid: 88c75293ab7e78a4ca86de035cb23cbb,
        type: 3}
      propertyPath: m_LocalPosition.z
      value: 26.5
      objectReference: {fileID: 0}
    - target: {fileID: 8052367427413783662, guid: 88c75293ab7e78a4ca86de035cb23cbb,
        type: 3}
      propertyPath: m_LocalRotation.w
      value: 0.90077645
      objectReference: {fileID: 0}
    - target: {fileID: 8052367427413783662, guid: 88c75293ab7e78a4ca86de035cb23cbb,
        type: 3}
      propertyPath: m_LocalRotation.x
      value: 0.06374033
      objectReference: {fileID: 0}
    - target: {fileID: 8052367427413783662, guid: 88c75293ab7e78a4ca86de035cb23cbb,
        type: 3}
      propertyPath: m_LocalRotation.y
      value: -0.42913568
      objectReference: {fileID: 0}
    - target: {fileID: 8052367427413783662, guid: 88c75293ab7e78a4ca86de035cb23cbb,
        type: 3}
      propertyPath: m_LocalRotation.z
      value: 0.019533236
      objectReference: {fileID: 0}
    - target: {fileID: 8052367427413783662, guid: 88c75293ab7e78a4ca86de035cb23cbb,
        type: 3}
      propertyPath: m_LocalEulerAnglesHint.x
      value: 7.5620003
      objectReference: {fileID: 0}
    - target: {fileID: 8052367427413783662, guid: 88c75293ab7e78a4ca86de035cb23cbb,
        type: 3}
      propertyPath: m_LocalEulerAnglesHint.y
      value: -51.021004
      objectReference: {fileID: 0}
    - target: {fileID: 8052367427413783662, guid: 88c75293ab7e78a4ca86de035cb23cbb,
        type: 3}
      propertyPath: m_LocalEulerAnglesHint.z
      value: -1.128
      objectReference: {fileID: 0}
    m_RemovedComponents: []
  m_SourcePrefab: {fileID: 100100000, guid: 88c75293ab7e78a4ca86de035cb23cbb, type: 3}
