%YAML 1.1
%TAG !u! tag:unity3d.com,2011:
--- !u!1 &113304
GameObject:
  m_ObjectHideFlags: 0
  m_CorrespondingSourceObject: {fileID: 0}
  m_PrefabInstance: {fileID: 0}
  m_PrefabAsset: {fileID: 0}
  serializedVersion: 6
  m_Component:
  - component: {fileID: 423466}
  - component: {fileID: 3396308}
  - component: {fileID: 2330530}
  m_Layer: 0
  m_Name: test_asteroid2_LOD0
  m_TagString: Untagged
  m_Icon: {fileID: 0}
  m_NavMeshLayer: 0
  m_StaticEditorFlags: 0
  m_IsActive: 1
--- !u!4 &423466
Transform:
  m_ObjectHideFlags: 0
  m_CorrespondingSourceObject: {fileID: 0}
  m_PrefabInstance: {fileID: 0}
  m_PrefabAsset: {fileID: 0}
  m_GameObject: {fileID: 113304}
  m_LocalRotation: {x: 0.47292823, y: 0.24922504, z: 0.23989041, w: 0.810357}
  m_LocalPosition: {x: 0, y: 0, z: 0}
  m_LocalScale: {x: 1, y: 1, z: 1}
  m_Children:
  - {fileID: 7115476523291132663}
  m_Father: {fileID: 446090}
  m_RootOrder: 0
  m_LocalEulerAnglesHint: {x: 0, y: 0, z: 0}
--- !u!33 &3396308
MeshFilter:
  m_ObjectHideFlags: 0
  m_CorrespondingSourceObject: {fileID: 0}
  m_PrefabInstance: {fileID: 0}
  m_PrefabAsset: {fileID: 0}
  m_GameObject: {fileID: 113304}
  m_Mesh: {fileID: 4300000, guid: e259e812818c9074dbe1011ab1789aae, type: 3}
--- !u!23 &2330530
MeshRenderer:
  m_ObjectHideFlags: 0
  m_CorrespondingSourceObject: {fileID: 0}
  m_PrefabInstance: {fileID: 0}
  m_PrefabAsset: {fileID: 0}
  m_GameObject: {fileID: 113304}
  m_Enabled: 1
  m_CastShadows: 1
  m_ReceiveShadows: 1
  m_DynamicOccludee: 1
  m_MotionVectors: 1
  m_LightProbeUsage: 1
  m_ReflectionProbeUsage: 1
  m_RayTracingMode: 2
  m_RenderingLayerMask: 1
  m_RendererPriority: 0
  m_Materials:
  - {fileID: 2100000, guid: 44f9d629006bb76409d3626dd82797c0, type: 2}
  m_StaticBatchInfo:
    firstSubMesh: 0
    subMeshCount: 0
  m_StaticBatchRoot: {fileID: 0}
  m_ProbeAnchor: {fileID: 0}
  m_LightProbeVolumeOverride: {fileID: 0}
  m_ScaleInLightmap: 1
  m_ReceiveGI: 1
  m_PreserveUVs: 0
  m_IgnoreNormalsForChartDetection: 0
  m_ImportantGI: 0
  m_StitchLightmapSeams: 1
  m_SelectedEditorRenderState: 3
  m_MinimumChartSize: 4
  m_AutoUVMaxDistance: 0.5
  m_AutoUVMaxAngle: 89
  m_LightmapParameters: {fileID: 0}
  m_SortingLayerID: 0
  m_SortingLayer: 0
  m_SortingOrder: 0
--- !u!1 &141316
GameObject:
  m_ObjectHideFlags: 0
  m_CorrespondingSourceObject: {fileID: 0}
  m_PrefabInstance: {fileID: 0}
  m_PrefabAsset: {fileID: 0}
  serializedVersion: 6
  m_Component:
  - component: {fileID: 446090}
  - component: {fileID: 5499024}
  - component: {fileID: 11421226}
  - component: {fileID: -8495480141138559409}
  - component: {fileID: 6512286884735033436}
  - component: {fileID: 675043154254451115}
  - component: {fileID: 7897014599559655810}
  m_Layer: 0
  m_Name: Asteroid 2
  m_TagString: Enemy
  m_Icon: {fileID: 0}
  m_NavMeshLayer: 0
  m_StaticEditorFlags: 0
  m_IsActive: 1
--- !u!4 &446090
Transform:
  m_ObjectHideFlags: 0
  m_CorrespondingSourceObject: {fileID: 0}
  m_PrefabInstance: {fileID: 0}
  m_PrefabAsset: {fileID: 0}
  m_GameObject: {fileID: 141316}
  m_LocalRotation: {x: 0, y: 0, z: 0, w: 1}
  m_LocalPosition: {x: 0, y: 0, z: 0}
  m_LocalScale: {x: 1, y: 1, z: 1}
  m_Children:
  - {fileID: 423466}
  m_Father: {fileID: 0}
  m_RootOrder: 0
  m_LocalEulerAnglesHint: {x: 0, y: 0, z: 0}
--- !u!54 &5499024
Rigidbody:
  m_ObjectHideFlags: 0
  m_CorrespondingSourceObject: {fileID: 0}
  m_PrefabInstance: {fileID: 0}
  m_PrefabAsset: {fileID: 0}
  m_GameObject: {fileID: 141316}
  serializedVersion: 2
  m_Mass: 1
  m_Drag: 0
  m_AngularDrag: 0
  m_UseGravity: 0
  m_IsKinematic: 0
  m_Interpolate: 0
  m_Constraints: 0
  m_CollisionDetection: 0
--- !u!114 &11421226
MonoBehaviour:
  m_ObjectHideFlags: 0
  m_CorrespondingSourceObject: {fileID: 0}
  m_PrefabInstance: {fileID: 0}
  m_PrefabAsset: {fileID: 0}
  m_GameObject: {fileID: 141316}
  m_Enabled: 1
  m_EditorHideFlags: 0
  m_Script: {fileID: 11500000, guid: a718c138b20419b499c3d92b17e6ff7a, type: 3}
  m_Name: 
  m_EditorClassIdentifier: 
  tumble: 0.25
--- !u!135 &-8495480141138559409
SphereCollider:
  m_ObjectHideFlags: 0
  m_CorrespondingSourceObject: {fileID: 0}
  m_PrefabInstance: {fileID: 0}
  m_PrefabAsset: {fileID: 0}
  m_GameObject: {fileID: 141316}
  m_Material: {fileID: 0}
  m_IsTrigger: 0
  m_Enabled: 1
  serializedVersion: 2
  m_Radius: 0.5
  m_Center: {x: 0, y: 0, z: 0}
--- !u!114 &6512286884735033436
MonoBehaviour:
  m_ObjectHideFlags: 0
  m_CorrespondingSourceObject: {fileID: 0}
  m_PrefabInstance: {fileID: 0}
  m_PrefabAsset: {fileID: 0}
  m_GameObject: {fileID: 141316}
  m_Enabled: 1
  m_EditorHideFlags: 0
  m_Script: {fileID: 11500000, guid: 398ce084ae023f146af65a858c68d65c, type: 3}
  m_Name: 
  m_EditorClassIdentifier: 
  ParticleSystem: {fileID: 7112076874613611387}
--- !u!23 &675043154254451115
MeshRenderer:
  m_ObjectHideFlags: 0
  m_CorrespondingSourceObject: {fileID: 0}
  m_PrefabInstance: {fileID: 0}
  m_PrefabAsset: {fileID: 0}
  m_GameObject: {fileID: 141316}
  m_Enabled: 1
  m_CastShadows: 1
  m_ReceiveShadows: 1
  m_DynamicOccludee: 1
  m_MotionVectors: 1
  m_LightProbeUsage: 1
  m_ReflectionProbeUsage: 1
  m_RayTracingMode: 2
  m_RenderingLayerMask: 1
  m_RendererPriority: 0
  m_Materials:
  - {fileID: 2100000, guid: 44f9d629006bb76409d3626dd82797c0, type: 2}
  m_StaticBatchInfo:
    firstSubMesh: 0
    subMeshCount: 0
  m_StaticBatchRoot: {fileID: 0}
  m_ProbeAnchor: {fileID: 0}
  m_LightProbeVolumeOverride: {fileID: 0}
  m_ScaleInLightmap: 1
  m_ReceiveGI: 1
  m_PreserveUVs: 0
  m_IgnoreNormalsForChartDetection: 0
  m_ImportantGI: 0
  m_StitchLightmapSeams: 1
  m_SelectedEditorRenderState: 3
  m_MinimumChartSize: 4
  m_AutoUVMaxDistance: 0.5
  m_AutoUVMaxAngle: 89
  m_LightmapParameters: {fileID: 0}
  m_SortingLayerID: 0
  m_SortingLayer: 0
  m_SortingOrder: 0
--- !u!33 &7897014599559655810
MeshFilter:
  m_ObjectHideFlags: 0
  m_CorrespondingSourceObject: {fileID: 0}
  m_PrefabInstance: {fileID: 0}
  m_PrefabAsset: {fileID: 0}
  m_GameObject: {fileID: 141316}
  m_Mesh: {fileID: 4300000, guid: d03d0c597bb388947bf16f564153364a, type: 3}
--- !u!1001 &7111420806637365953
PrefabInstance:
  m_ObjectHideFlags: 0
  serializedVersion: 2
  m_Modification:
    m_TransformParent: {fileID: 423466}
    m_Modifications:
    - target: {fileID: 1121192042590650, guid: e1b08032bec16ba4eb1ae23cbd572664, type: 3}
      propertyPath: m_Name
      value: BigExplosion
      objectReference: {fileID: 0}
    - target: {fileID: 1121192042590650, guid: e1b08032bec16ba4eb1ae23cbd572664, type: 3}
      propertyPath: m_IsActive
      value: 1
      objectReference: {fileID: 0}
    - target: {fileID: 4388947112716342, guid: e1b08032bec16ba4eb1ae23cbd572664, type: 3}
      propertyPath: m_RootOrder
      value: 0
      objectReference: {fileID: 0}
    - target: {fileID: 4388947112716342, guid: e1b08032bec16ba4eb1ae23cbd572664, type: 3}
      propertyPath: m_LocalPosition.x
      value: 0
      objectReference: {fileID: 0}
    - target: {fileID: 4388947112716342, guid: e1b08032bec16ba4eb1ae23cbd572664, type: 3}
      propertyPath: m_LocalPosition.y
      value: 0
      objectReference: {fileID: 0}
    - target: {fileID: 4388947112716342, guid: e1b08032bec16ba4eb1ae23cbd572664, type: 3}
      propertyPath: m_LocalPosition.z
      value: 0
      objectReference: {fileID: 0}
    - target: {fileID: 4388947112716342, guid: e1b08032bec16ba4eb1ae23cbd572664, type: 3}
      propertyPath: m_LocalRotation.w
      value: 0.23859814
      objectReference: {fileID: 0}
    - target: {fileID: 4388947112716342, guid: e1b08032bec16ba4eb1ae23cbd572664, type: 3}
      propertyPath: m_LocalRotation.x
      value: -0.9074196
      objectReference: {fileID: 0}
    - target: {fileID: 4388947112716342, guid: e1b08032bec16ba4eb1ae23cbd572664, type: 3}
      propertyPath: m_LocalRotation.y
      value: -0.0066005727
      objectReference: {fileID: 0}
    - target: {fileID: 4388947112716342, guid: e1b08032bec16ba4eb1ae23cbd572664, type: 3}
      propertyPath: m_LocalRotation.z
      value: -0.34585682
      objectReference: {fileID: 0}
    - target: {fileID: 4388947112716342, guid: e1b08032bec16ba4eb1ae23cbd572664, type: 3}
      propertyPath: m_LocalEulerAnglesHint.x
      value: -90
      objectReference: {fileID: 0}
    - target: {fileID: 4388947112716342, guid: e1b08032bec16ba4eb1ae23cbd572664, type: 3}
      propertyPath: m_LocalEulerAnglesHint.y
      value: 0
      objectReference: {fileID: 0}
    - target: {fileID: 4388947112716342, guid: e1b08032bec16ba4eb1ae23cbd572664, type: 3}
      propertyPath: m_LocalEulerAnglesHint.z
      value: 0
      objectReference: {fileID: 0}
    - target: {fileID: 198003277540838118, guid: e1b08032bec16ba4eb1ae23cbd572664,
        type: 3}
      propertyPath: playOnAwake
      value: 0
      objectReference: {fileID: 0}
    - target: {fileID: 198166025632870074, guid: e1b08032bec16ba4eb1ae23cbd572664,
        type: 3}
      propertyPath: playOnAwake
      value: 0
      objectReference: {fileID: 0}
    - target: {fileID: 198604367962915600, guid: e1b08032bec16ba4eb1ae23cbd572664,
        type: 3}
      propertyPath: playOnAwake
      value: 0
      objectReference: {fileID: 0}
    - target: {fileID: 198751835582626154, guid: e1b08032bec16ba4eb1ae23cbd572664,
        type: 3}
      propertyPath: playOnAwake
      value: 0
      objectReference: {fileID: 0}
    - target: {fileID: 198805160044956896, guid: e1b08032bec16ba4eb1ae23cbd572664,
        type: 3}
      propertyPath: playOnAwake
      value: 0
      objectReference: {fileID: 0}
    - target: {fileID: 198844874048127756, guid: e1b08032bec16ba4eb1ae23cbd572664,
        type: 3}
      propertyPath: playOnAwake
      value: 0
      objectReference: {fileID: 0}
    - target: {fileID: 198917022394846920, guid: e1b08032bec16ba4eb1ae23cbd572664,
        type: 3}
      propertyPath: playOnAwake
      value: 0
      objectReference: {fileID: 0}
    - target: {fileID: 198918736123329914, guid: e1b08032bec16ba4eb1ae23cbd572664,
        type: 3}
      propertyPath: playOnAwake
      value: 0
      objectReference: {fileID: 0}
    m_RemovedComponents: []
  m_SourcePrefab: {fileID: 100100000, guid: e1b08032bec16ba4eb1ae23cbd572664, type: 3}
--- !u!1 &7112076874613611387 stripped
GameObject:
  m_CorrespondingSourceObject: {fileID: 1121192042590650, guid: e1b08032bec16ba4eb1ae23cbd572664,
    type: 3}
  m_PrefabInstance: {fileID: 7111420806637365953}
  m_PrefabAsset: {fileID: 0}
--- !u!4 &7115476523291132663 stripped
Transform:
  m_CorrespondingSourceObject: {fileID: 4388947112716342, guid: e1b08032bec16ba4eb1ae23cbd572664,
    type: 3}
  m_PrefabInstance: {fileID: 7111420806637365953}
  m_PrefabAsset: {fileID: 0}
